…
``` r
pups_df = janitor::clean_names(pups_df)
```

## `select`

select some columns.

``` r
select(litters_df, group, litter_number)
```

    ## # A tibble: 49 x 2
    ##    group litter_number  
    ##    <chr> <chr>          
    ##  1 Con7  #85            
    ##  2 Con7  #1/2/95/2      
    ##  3 Con7  #5/5/3/83/3-3  
    ##  4 Con7  #5/4/2/95/2    
    ##  5 Con7  #4/2/95/3-3    
    ##  6 Con7  #2/2/95/3-2    
    ##  7 Con7  #1/5/3/83/3-3/2
    ##  8 Con8  #3/83/3-3      
    ##  9 Con8  #2/95/3        
    ## 10 Con8  #3/5/2/2/95    
    ## # … with 39 more rows

``` r
select(litters_df, group, gd0_weight, gd18_weight)
```

    ## # A tibble: 49 x 3
    ##    group gd0_weight gd18_weight
    ##    <chr>      <dbl>       <dbl>
    ##  1 Con7        19.7        34.7
    ##  2 Con7        27          42  
    ##  3 Con7        26          41.4
    ##  4 Con7        28.5        44.1
    ##  5 Con7        NA          NA  
    ##  6 Con7        NA          NA  
    ##  7 Con7        NA          NA  
    ##  8 Con8        NA          NA  
    ##  9 Con8        NA          NA  
    ## 10 Con8        28.5        NA  
    ## # … with 39 more rows

``` r
select(litters_df, group, gd0_weight:gd_of_birth)
```

    ## # A tibble: 49 x 4
    ##    group gd0_weight gd18_weight gd_of_birth
    ##    <chr>      <dbl>       <dbl>       <dbl>
    ##  1 Con7        19.7        34.7          20
    ##  2 Con7        27          42            19
    ##  3 Con7        26          41.4          19
    ##  4 Con7        28.5        44.1          19
    ##  5 Con7        NA          NA            20
    ##  6 Con7        NA          NA            20
    ##  7 Con7        NA          NA            20
    ##  8 Con8        NA          NA            20
    ##  9 Con8        NA          NA            20
    ## 10 Con8        28.5        NA            20
    ## # … with 39 more rows

``` r
select(litters_df, group, starts_with("pups"))
```

    ## # A tibble: 49 x 4
    ##    group pups_born_alive pups_dead_birth pups_survive
    ##    <chr>           <dbl>           <dbl>        <dbl>
    ##  1 Con7                3               4            3
    ##  2 Con7                8               0            7
    ##  3 Con7                6               0            5
    ##  4 Con7                5               1            4
    ##  5 Con7                6               0            6
    ##  6 Con7                6               0            4
    ##  7 Con7                9               0            9
    ##  8 Con8                9               1            8
    ##  9 Con8                8               0            8
    ## 10 Con8                8               0            8
    ## # … with 39 more rows

``` r
select(litters_df, -litter_number) # eliminate column
```

    ## # A tibble: 49 x 7
    ##    group gd0_weight gd18_weight gd_of_birth pups_born_alive pups_dead_birth
    ##    <chr>      <dbl>       <dbl>       <dbl>           <dbl>           <dbl>
    ##  1 Con7        19.7        34.7          20               3               4
    ##  2 Con7        27          42            19               8               0
    ##  3 Con7        26          41.4          19               6               0
    ##  4 Con7        28.5        44.1          19               5               1
    ##  5 Con7        NA          NA            20               6               0
    ##  6 Con7        NA          NA            20               6               0
    ##  7 Con7        NA          NA            20               9               0
    ##  8 Con8        NA          NA            20               9               1
    ##  9 Con8        NA          NA            20               8               0
    ## 10 Con8        28.5        NA            20               8               0
    ## # … with 39 more rows, and 1 more variable: pups_survive <dbl>

``` r
select(litters_df, GROUP = group, litter_number)
```

    ## # A tibble: 49 x 2
    ##    GROUP litter_number  
    ##    <chr> <chr>          
    ##  1 Con7  #85            
    ##  2 Con7  #1/2/95/2      
    ##  3 Con7  #5/5/3/83/3-3  
    ##  4 Con7  #5/4/2/95/2    
    ##  5 Con7  #4/2/95/3-3    
    ##  6 Con7  #2/2/95/3-2    
    ##  7 Con7  #1/5/3/83/3-3/2
    ##  8 Con8  #3/83/3-3      
    ##  9 Con8  #2/95/3        
    ## 10 Con8  #3/5/2/2/95    
    ## # … with 39 more rows

``` r
rename(litters_df, GROUP = group)
```

    ## # A tibble: 49 x 8
    ##    GROUP litter_number   gd0_weight gd18_weight gd_of_birth pups_born_alive
    ##    <chr> <chr>                <dbl>       <dbl>       <dbl>           <dbl>
    ##  1 Con7  #85                   19.7        34.7          20               3
    ##  2 Con7  #1/2/95/2             27          42            19               8
    ##  3 Con7  #5/5/3/83/3-3         26          41.4          19               6
    ##  4 Con7  #5/4/2/95/2           28.5        44.1          19               5
    ##  5 Con7  #4/2/95/3-3           NA          NA            20               6
    ##  6 Con7  #2/2/95/3-2           NA          NA            20               6
    ##  7 Con7  #1/5/3/83/3-3/2       NA          NA            20               9
    ##  8 Con8  #3/83/3-3             NA          NA            20               9
    ##  9 Con8  #2/95/3               NA          NA            20               8
    ## 10 Con8  #3/5/2/2/95           28.5        NA            20               8
    ## # … with 39 more rows, and 2 more variables: pups_dead_birth <dbl>,
    ## #   pups_survive <dbl>

``` r
select(litters_df, litter_number, everything())
```

    ## # A tibble: 49 x 8
    ##    litter_number   group gd0_weight gd18_weight gd_of_birth pups_born_alive
    ##    <chr>           <chr>      <dbl>       <dbl>       <dbl>           <dbl>
    ##  1 #85             Con7        19.7        34.7          20               3
    ##  2 #1/2/95/2       Con7        27          42            19               8
    ##  3 #5/5/3/83/3-3   Con7        26          41.4          19               6
    ##  4 #5/4/2/95/2     Con7        28.5        44.1          19               5
    ##  5 #4/2/95/3-3     Con7        NA          NA            20               6
    ##  6 #2/2/95/3-2     Con7        NA          NA            20               6
    ##  7 #1/5/3/83/3-3/2 Con7        NA          NA            20               9
    ##  8 #3/83/3-3       Con8        NA          NA            20               9
    ##  9 #2/95/3         Con8        NA          NA            20               8
    ## 10 #3/5/2/2/95     Con8        28.5        NA            20               8
    ## # … with 39 more rows, and 2 more variables: pups_dead_birth <dbl>,
    ## #   pups_survive <dbl>

``` r
relocate(litters_df, litter_number)
```

    ## # A tibble: 49 x 8
    ##    litter_number   group gd0_weight gd18_weight gd_of_birth pups_born_alive
    ##    <chr>           <chr>      <dbl>       <dbl>       <dbl>           <dbl>
    ##  1 #85             Con7        19.7        34.7          20               3
    ##  2 #1/2/95/2       Con7        27          42            19               8
    ##  3 #5/5/3/83/3-3   Con7        26          41.4          19               6
    ##  4 #5/4/2/95/2     Con7        28.5        44.1          19               5
    ##  5 #4/2/95/3-3     Con7        NA          NA            20               6
    ##  6 #2/2/95/3-2     Con7        NA          NA            20               6
    ##  7 #1/5/3/83/3-3/2 Con7        NA          NA            20               9
    ##  8 #3/83/3-3       Con8        NA          NA            20               9
    ##  9 #2/95/3         Con8        NA          NA            20               8
    ## 10 #3/5/2/2/95     Con8        28.5        NA            20               8
    ## # … with 39 more rows, and 2 more variables: pups_dead_birth <dbl>,
    ## #   pups_survive <dbl>

## pups data

``` r
select(pups_df, litter_number, sex, pd_ears)
```

    ## # A tibble: 313 x 3
    ##    litter_number   sex pd_ears
    ##    <chr>         <dbl>   <dbl>
    ##  1 #85               1       4
    ##  2 #85               1       4
    ##  3 #1/2/95/2         1       5
    ##  4 #1/2/95/2         1       5
    ##  5 #5/5/3/83/3-3     1       5
    ##  6 #5/5/3/83/3-3     1       5
    ##  7 #5/4/2/95/2       1      NA
    ##  8 #4/2/95/3-3       1       4
    ##  9 #4/2/95/3-3       1       4
    ## 10 #2/2/95/3-2       1       4
    ## # … with 303 more rows
…
    ##  [1] "Con7" "Con7" "Con7" "Con7" "Con7" "Con7" "Con7" "Con8" "Con8" "Con8"
    ## [11] "Con8" "Con8" "Con8" "Con8" "Con8" "Mod7" "Mod7" "Mod7" "Mod7" "Mod7"
    ## [21] "Mod7" "Mod7" "Mod7" "Mod7" "Mod7" "Mod7" "Mod7" "Low7" "Low7" "Low7"
    ## [31] "Low7" "Low7" "Low7" "Low7" "Low7" "Mod8" "Mod8" "Mod8" "Mod8" "Mod8"
    ## [41] "Mod8" "Mod8" "Low8" "Low8" "Low8" "Low8" "Low8" "Low8" "Low8"

## `filter`

``` r
filter(litters_df, gd_of_birth == 20)
```

    ## # A tibble: 32 x 8
    ##    group litter_number   gd0_weight gd18_weight gd_of_birth pups_born_alive
    ##    <chr> <chr>                <dbl>       <dbl>       <dbl>           <dbl>
    ##  1 Con7  #85                   19.7        34.7          20               3
    ##  2 Con7  #4/2/95/3-3           NA          NA            20               6
    ##  3 Con7  #2/2/95/3-2           NA          NA            20               6
    ##  4 Con7  #1/5/3/83/3-3/2       NA          NA            20               9
    ##  5 Con8  #3/83/3-3             NA          NA            20               9
    ##  6 Con8  #2/95/3               NA          NA            20               8
    ##  7 Con8  #3/5/2/2/95           28.5        NA            20               8
    ##  8 Con8  #1/6/2/2/95-2         NA          NA            20               7
    ##  9 Con8  #3/5/3/83/3-3-2       NA          NA            20               8
    ## 10 Con8  #3/6/2/2/95-3         NA          NA            20               7
    ## # … with 22 more rows, and 2 more variables: pups_dead_birth <dbl>,
    ## #   pups_survive <dbl>
…
``` r
filter(litters_df, pups_survive != 4)
```

    ## # A tibble: 44 x 8
    ##    group litter_number   gd0_weight gd18_weight gd_of_birth pups_born_alive
    ##    <chr> <chr>                <dbl>       <dbl>       <dbl>           <dbl>
    ##  1 Con7  #85                   19.7        34.7          20               3
    ##  2 Con7  #1/2/95/2             27          42            19               8
    ##  3 Con7  #5/5/3/83/3-3         26          41.4          19               6
    ##  4 Con7  #4/2/95/3-3           NA          NA            20               6
    ##  5 Con7  #1/5/3/83/3-3/2       NA          NA            20               9
    ##  6 Con8  #3/83/3-3             NA          NA            20               9
    ##  7 Con8  #2/95/3               NA          NA            20               8
    ##  8 Con8  #3/5/2/2/95           28.5        NA            20               8
    ##  9 Con8  #5/4/3/83/3           28          NA            19               9
    ## 10 Con8  #1/6/2/2/95-2         NA          NA            20               7
    ## # … with 34 more rows, and 2 more variables: pups_dead_birth <dbl>,
    ## #   pups_survive <dbl>

``` r
filter(litters_df, !(group == "Con7"))
```

    ## # A tibble: 42 x 8
    ##    group litter_number   gd0_weight gd18_weight gd_of_birth pups_born_alive
    ##    <chr> <chr>                <dbl>       <dbl>       <dbl>           <dbl>
    ##  1 Con8  #3/83/3-3             NA          NA            20               9
    ##  2 Con8  #2/95/3               NA          NA            20               8
    ##  3 Con8  #3/5/2/2/95           28.5        NA            20               8
    ##  4 Con8  #5/4/3/83/3           28          NA            19               9
    ##  5 Con8  #1/6/2/2/95-2         NA          NA            20               7
    ##  6 Con8  #3/5/3/83/3-3-2       NA          NA            20               8
    ##  7 Con8  #2/2/95/2             NA          NA            19               5
    ##  8 Con8  #3/6/2/2/95-3         NA          NA            20               7
    ##  9 Mod7  #59                   17          33.4          19               8
    ## 10 Mod7  #103                  21.4        42.1          19               9
    ## # … with 32 more rows, and 2 more variables: pups_dead_birth <dbl>,
    ## #   pups_survive <dbl>
…
    ## # A tibble: 4 x 8
    ##   group litter_number   gd0_weight gd18_weight gd_of_birth pups_born_alive
    ##   <chr> <chr>                <dbl>       <dbl>       <dbl>           <dbl>
    ## 1 Con7  #85                   19.7        34.7          20               3
    ## 2 Con7  #4/2/95/3-3           NA          NA            20               6
    ## 3 Con7  #2/2/95/3-2           NA          NA            20               6
    ## 4 Con7  #1/5/3/83/3-3/2       NA          NA            20               9
    ## # … with 2 more variables: pups_dead_birth <dbl>, pups_survive <dbl>

``` r
filter(litters_df, group == "Con7" | gd_of_birth == 20) # or
```

    ## # A tibble: 35 x 8
    ##    group litter_number   gd0_weight gd18_weight gd_of_birth pups_born_alive
    ##    <chr> <chr>                <dbl>       <dbl>       <dbl>           <dbl>
    ##  1 Con7  #85                   19.7        34.7          20               3
    ##  2 Con7  #1/2/95/2             27          42            19               8
    ##  3 Con7  #5/5/3/83/3-3         26          41.4          19               6
    ##  4 Con7  #5/4/2/95/2           28.5        44.1          19               5
    ##  5 Con7  #4/2/95/3-3           NA          NA            20               6
    ##  6 Con7  #2/2/95/3-2           NA          NA            20               6
    ##  7 Con7  #1/5/3/83/3-3/2       NA          NA            20               9
    ##  8 Con8  #3/83/3-3             NA          NA            20               9
    ##  9 Con8  #2/95/3               NA          NA            20               8
    ## 10 Con8  #3/5/2/2/95           28.5        NA            20               8
    ## # … with 25 more rows, and 2 more variables: pups_dead_birth <dbl>,
    ## #   pups_survive <dbl>

``` r
drop_na(litters_df)
```

    ## # A tibble: 31 x 8
    ##    group litter_number gd0_weight gd18_weight gd_of_birth pups_born_alive
    ##    <chr> <chr>              <dbl>       <dbl>       <dbl>           <dbl>
    ##  1 Con7  #85                 19.7        34.7          20               3
    ##  2 Con7  #1/2/95/2           27          42            19               8
    ##  3 Con7  #5/5/3/83/3-3       26          41.4          19               6
    ##  4 Con7  #5/4/2/95/2         28.5        44.1          19               5
    ##  5 Mod7  #59                 17          33.4          19               8
    ##  6 Mod7  #103                21.4        42.1          19               9
    ##  7 Mod7  #3/82/3-2           28          45.9          20               5
    ##  8 Mod7  #5/3/83/5-2         22.6        37            19               5
    ##  9 Mod7  #106                21.7        37.8          20               5
    ## 10 Mod7  #94/2               24.4        42.9          19               7
    ## # … with 21 more rows, and 2 more variables: pups_dead_birth <dbl>,
    ## #   pups_survive <dbl>

``` r
drop_na(litters_df, gd0_weight)
```

    ## # A tibble: 34 x 8
    ##    group litter_number gd0_weight gd18_weight gd_of_birth pups_born_alive
    ##    <chr> <chr>              <dbl>       <dbl>       <dbl>           <dbl>
    ##  1 Con7  #85                 19.7        34.7          20               3
    ##  2 Con7  #1/2/95/2           27          42            19               8
    ##  3 Con7  #5/5/3/83/3-3       26          41.4          19               6
    ##  4 Con7  #5/4/2/95/2         28.5        44.1          19               5
    ##  5 Con8  #3/5/2/2/95         28.5        NA            20               8
    ##  6 Con8  #5/4/3/83/3         28          NA            19               9
    ##  7 Mod7  #59                 17          33.4          19               8
    ##  8 Mod7  #103                21.4        42.1          19               9
    ##  9 Mod7  #3/82/3-2           28          45.9          20               5
    ## 10 Mod7  #4/2/95/2           23.5        NA            19               9
    ## # … with 24 more rows, and 2 more variables: pups_dead_birth <dbl>,
    ## #   pups_survive <dbl>
